2006/triangle/dump.vcd
$date
	Sun Mar 21 23:40:05 2010
$end
$version
	ModelSim Version 6.1
$end
$timescale
	10ps
$end
$scope module test $end
$var parameter 72 ! INPUT_DATA $end
$var parameter 80 " EXPECT_DATA $end
$var parameter 32 # period $end
$var reg 1 $ clk $end
$var reg 1 % reset $end
$var reg 1 & nt $end
$var reg 3 ' xi [2:0] $end
$var reg 3 ( yi [2:0] $end
$var wire 1 ) xo [2] $end
$var wire 1 * xo [1] $end
$var wire 1 + xo [0] $end
$var wire 1 , yo [2] $end
$var wire 1 - yo [1] $end
$var wire 1 . yo [0] $end
$var wire 1 / po $end
$var wire 1 0 busy $end
$var integer 32 1 i $end
$var integer 32 2 j $end
$var integer 32 3 k $end
$var integer 32 4 l $end
$var integer 32 5 out_f $end
$var integer 32 6 err $end
$var integer 32 7 pattern_num $end
$var integer 32 8 total_num $end
$var integer 32 9 total_cycle_num $end
$var integer 32 : a $end
$var integer 32 ; b $end
$var integer 32 < c $end
$var integer 32 = d $end
$var reg 6 > data_tmp_expect [5:0] $end
$var reg 6 ? data_tmp_i1 [5:0] $end
$var reg 6 @ data_tmp_i2 [5:0] $end
$var reg 6 A data_tmp_i3 [5:0] $end
$scope module top $end
$var wire 1 B clk $end
$var wire 1 C reset $end
$var wire 1 D nt $end
$var wire 1 E xi [2] $end
$var wire 1 F xi [1] $end
$var wire 1 G xi [0] $end
$var wire 1 H yi [2] $end
$var wire 1 I yi [1] $end
$var wire 1 J yi [0] $end
$var reg 1 K busy $end
$var reg 1 L po $end
$var reg 3 M xo [2:0] $end
$var reg 3 N yo [2:0] $end
$var reg 3 O xi_da_run [2:0] $end
$var reg 3 P yi_da_run [2:0] $end
$var integer 32 Q slash $end
$var integer 32 R slash1 $end
$var integer 32 S status $end
$var integer 32 T run_status $end
$var integer 32 U i $end
$upscope $end
$upscope $end
$enddefinitions $end
#0
$dumpvars
b11010010110111001110000011101010111010000101110011001000110000101110100 !
b1100101011110000111000001100101011000110111010000101110011001000110000101110100 "
b1111101000 #
1$
0%
0&
bz '
bz (
b0 1
b0 2
b0 3
b0 4
b10 5
b0 6
b1 7
b0 8
bx 9
bx :
bx ;
bx <
bx =
bx >
bx ?
bx @
bx A
xK
xL
bx M
bx N
bx O
bx P
bx Q
bx R
bx S
bx T
bx U
zJ
zI
zH
zG
zF
zE
0D
0C
1B
x+
x*
x)
x.
x-
x,
x/
x0
$end
#5000
0$
1%
0B
1C
0K
b0 S
b0 T
b1 U
00
#10000
1$
b0 9
1B
#14999
0%
b11 3
0C
#15000
0$
1&
0B
1D
#18000
b1001 ?
b1 '
b1 (
1G
0F
0E
1J
0I
0H
#20000
1$
b1 9
1B
b1 S
#22000
bz '
bz (
zG
zF
zE
zJ
zI
zH
#25000
0$
0&
0B
0D
#28000
b100001 @
b100 '
b1 (
0G
0F
1E
1J
0I
0H
#30000
1$
b10 9
1B
b10 S
1K
10
#32000
bz '
bz (
zG
zF
zE
zJ
zI
zH
#35000
0$
0B
#38000
b1111 A
b1 '
b111 (
1G
0F
0E
1J
1I
1H
#40000
1$
b11 9
1B
b11 S
b1 O
b1 P
#42000
bz '
bz (
b11 1
zG
zF
zE
zJ
zI
zH
#45000
0$
b0 3
0B
#50000
1$
b100 9
1B
0L
b0 Q
b0 R
1L
b1 M
b1 N
b10 O
1/
1+
0*
0)
1.
0-
0,
#55000
0$
0B
#60000
1$
b1001 >
b1 4
b101 9
1B
0L
1L
b10 M
b11 O
0+
1*
#65000
0$
0B
#70000
1$
b10001 >
b10 4
b110 9
1B
0L
1L
b11 M
b100 O
1+
#75000
0$
0B
#80000
1$
b11001 >
b11 4
b111 9
1B
0L
1L
b100 M
b1 O
b10 P
b1 T
b10 U
0+
0*
1)
#85000
0$
0B
#90000
1$
b100001 >
b100 4
b1000 9
1B
0L
b11111111111111111111111111101110 Q
b11111111111111111111111111111101 R
1L
b1 M
b10 N
b10 O
1+
0)
0.
1-
#95000
0$
0B
#100000
1$
b1010 >
b101 4
b1001 9
1B
0L
b11111111111111111111111111110100 Q
1L
b10 M
b11 O
0+
1*
#105000
0$
0B
#110000
1$
b10010 >
b110 4
b1010 9
1B
0L
b11111111111111111111111111111010 Q
1L
b11 M
b100 O
1+
#115000
0$
0B
#120000
1$
b11010 >
b111 4
b1011 9
1B
0L
b0 Q
b1 O
b11 P
b11 U
0/
#125000
0$
0B
#130000
1$
b1100 9
1B
b11111111111111111111111111101110 Q
b11111111111111111111111111111010 R
1L
b1 M
b11 N
b10 O
1/
0*
1.
#135000
0$
0B
#140000
1$
b1011 >
b1000 4
b1101 9
1B
0L
b11111111111111111111111111110100 Q
1L
b10 M
b11 O
0+
1*
#145000
0$
0B
#150000
1$
b10011 >
b1001 4
b1110 9
1B
0L
b11111111111111111111111111111010 Q
1L
b11 M
b100 O
1+
#155000
0$
0B
#160000
1$
b11011 >
b1010 4
b1111 9
1B
0L
b0 Q
b1 O
b100 P
b100 U
0/
#165000
0$
0B
#170000
1$
b10000 9
1B
b11111111111111111111111111101110 Q
b11111111111111111111111111110111 R
1L
b1 M
b100 N
b10 O
1/
0*
0.
0-
1,
#175000
0$
0B
#180000
1$
b1100 >
b1011 4
b10001 9
1B
0L
b11111111111111111111111111110100 Q
1L
b10 M
b11 O
0+
1*
#185000
0$
0B
#190000
1$
b10100 >
b1100 4
b10010 9
1B
0L
b11111111111111111111111111111010 Q
b1 O
b101 P
b101 U
0/
#195000
0$
0B
#200000
1$
b10011 9
1B
b11111111111111111111111111101110 Q
b11111111111111111111111111110100 R
1L
b1 M
b101 N
b10 O
1/
1+
0*
1.
#205000
0$
0B
#210000
1$
b1101 >
b1101 4
b10100 9
1B
0L
b11111111111111111111111111110100 Q
1L
b10 M
b11 O
0+
1*
#215000
0$
0B
#220000
1$
b10101 >
b1110 4
b10101 9
1B
0L
b11111111111111111111111111111010 Q
b1 O
b110 P
b110 U
0/
#225000
0$
0B
#230000
1$
b10110 9
1B
b11111111111111111111111111101110 Q
b11111111111111111111111111110001 R
1L
b1 M
b110 N
b10 O
1/
1+
0*
0.
1-
#235000
0$
0B
#240000
1$
b1110 >
b1111 4
b10111 9
1B
0L
b11111111111111111111111111110100 Q
b1 O
b111 P
b111 U
0/
#245000
0$
0B
#250000
1$
b11000 9
1B
b11111111111111111111111111101110 Q
b11111111111111111111111111101110 R
1L
b111 N
b10 O
1/
1.
#255000
0$
0B
#260000
1$
b1111 >
b10000 4
b11001 9
1B
0L
b11111111111111111111111111110100 Q
b10 M
b10 T
0/
0+
1*
#265000
0$
0B
#270000
1$
b11010 9
1B
0K
b0 S
b0 T
b1 U
00
#275000
0$
b11 3
0B
#280000
1$
b11011 9
1B
#285000
0$
1&
0B
1D
#288000
b1 '
b1 (
1G
0F
0E
1J
0I
0H
#290000
1$
b11100 9
1B
b1 S
#292000
bz '
bz (
zG
zF
zE
zJ
zI
zH
#295000
0$
0&
0B
0D
#298000
b111001 @
b111 '
b1 (
1G
1F
1E
1J
0I
0H
#300000
1$
b11101 9
1B
b10 S
1K
10
#302000
bz '
bz (
zG
zF
zE
zJ
zI
zH
#305000
0$
0B
#308000
b1011 A
b1 '
b11 (
1G
0F
0E
1J
1I
0H
#310000
1$
b11110 9
1B
b11 S
b1 O
b1 P
#312000
bz '
bz (
b110 1
zG
zF
zE
zJ
zI
zH
#315000
0$
0B
#320000
1$
b11111 9
1B
b0 Q
b0 R
1L
b1 M
b1 N
b10 O
1/
1+
0*
0-
0,
#325000
0$
0B
#330000
1$
b1001 >
b10001 4
b100000 9
1B
0L
1L
b10 M
b11 O
0+
1*
#335000
0$
0B
#340000
1$
b10001 >
b10010 4
b100001 9
1B
0L
1L
b11 M
b100 O
1+
#345000
0$
0B
#350000
1$
b11001 >
b10011 4
b100010 9
1B
0L
1L
b100 M
b101 O
0+
0*
1)
#355000
0$
0B
#360000
1$
b100001 >
b10100 4
b100011 9
1B
0L
1L
b101 M
b110 O
1+
#365000
0$
0B
#370000
1$
b101001 >
b10101 4
b100100 9
1B
0L
1L
b110 M
b111 O
0+
1*
#375000
0$
0B
#380000
1$
b110001 >
b10110 4
b100101 9
1B
0L
1L
b111 M
b1 O
b10 P
b1 T
b10 U
1+
#385000
0$
0B
#390000
1$
b111001 >
b10111 4
b100110 9
1B
0L
b11111111111111111111111111110100 Q
b11111111111111111111111111111010 R
1L
b1 M
b10 N
b10 O
0*
0)
0.
1-
#395000
0$
0B
#400000
1$
b1010 >
b11000 4
b100111 9
1B
0L
b11111111111111111111111111110110 Q
1L
b10 M
b11 O
0+
1*
#405000
0$
0B
#410000
1$
b10010 >
b11001 4
b101000 9
1B
0L
b11111111111111111111111111111000 Q
1L
b11 M
b100 O
1+
#415000
0$
0B
#420000
1$
b11010 >
b11010 4
b101001 9
1B
0L
b11111111111111111111111111111010 Q
1L
b100 M
b101 O
0+
0*
1)
#425000
0$
0B
#430000
1$
b100010 >
b11011 4
b101010 9
1B
0L
b11111111111111111111111111111100 Q
b1 O
b11 P
b11 U
0/
#435000
0$
0B
#440000
1$
b101011 9
1B
b11111111111111111111111111110100 Q
b11111111111111111111111111110100 R
1L
b1 M
b11 N
b10 O
1/
1+
0)
1.
#445000
0$
0B
#450000
1$
b1011 >
b11100 4
b1010011111111000 8
