2007/Quartus上測試/lcd_ctrl/LCD_CTRL.vcd
$date
	Sun Mar 21 13:14:16 2010
$end
$version
	ModelSim Version 6.1
$end
$timescale
	10ps
$end
$scope module test $end
$var parameter 32 ! IMAGE_N_PAT $end
$var parameter 32 " CMD_N_PAT $end
$var parameter 32 # OUT_LENGTH $end
$var parameter 32 $ t_reset $end
$var reg 1 % clk $end
$var reg 1 & reset $end
$var reg 8 ' datain [7:0] $end
$var reg 3 ( cmd [2:0] $end
$var reg 1 ) cmd_valid $end
$var wire 1 * dataout [7] $end
$var wire 1 + dataout [6] $end
$var wire 1 , dataout [5] $end
$var wire 1 - dataout [4] $end
$var wire 1 . dataout [3] $end
$var wire 1 / dataout [2] $end
$var wire 1 0 dataout [1] $end
$var wire 1 1 dataout [0] $end
$var wire 1 2 output_valid $end
$var wire 1 3 busy $end
$var reg 8 4 out_temp [7:0] $end
$var reg 1 5 stop $end
$var integer 32 6 i $end
$var integer 32 7 j $end
$var integer 32 8 out_f $end
$var integer 32 9 err $end
$var integer 32 : pattern_num $end
$var reg 1 ; over $end
$scope module top $end
$var wire 1 < clk $end
$var wire 1 = reset $end
$var wire 1 > datain [7] $end
$var wire 1 ? datain [6] $end
$var wire 1 @ datain [5] $end
$var wire 1 A datain [4] $end
$var wire 1 B datain [3] $end
$var wire 1 C datain [2] $end
$var wire 1 D datain [1] $end
$var wire 1 E datain [0] $end
$var wire 1 F cmd [2] $end
$var wire 1 G cmd [1] $end
$var wire 1 H cmd [0] $end
$var wire 1 I cmd_valid $end
$var reg 8 J dataout [7:0] $end
$var reg 1 K output_valid $end
$var reg 1 L busy $end
$var reg 3 M cmd_data [2:0] $end
$var integer 32 N x_local $end
$var integer 32 O y_local $end
$var integer 32 P da_local $end
$var integer 32 Q da_local_cmd $end
$var integer 32 R da_cout $end
$var integer 32 S status $end
$var integer 32 T i $end
$upscope $end
$upscope $end
$enddefinitions $end
#0
$dumpvars
b100100 !
b11110 "
b100001110 #
b11001000 $
0%
0&
bx '
bx (
0)
bx 4
05
bx 6
bx 7
b10 8
b0 9
b0 :
0;
bx J
xK
xL
bx M
bx N
bx O
bx P
bx Q
bx R
bx S
bx T
0I
xH
xG
xF
xE
xD
xC
xB
xA
x@
x?
x>
0=
0<
x1
x0
x/
x.
x-
x,
x+
x*
x2
x3
$end
#5000
1%
b1110 4
1<
#10000
0%
1&
0<
1=
0L
b10 N
b10 O
b1110 P
03
#15000
1%
1<
#20000
0%
0<
#25000
1%
1<
#30000
0&
0%
b0 6
b1 (
1)
b0 7
0=
0<
1H
0G
0F
1I
b1 M
1L
b0 R
b0 S
13
#35000
1%
1<
#40000
0%
b0 '
bz (
0)
b1 7
0<
0E
0D
0C
0B
0A
0@
0?
0>
zH
zG
zF
0I
#45000
1%
1<
b1 R
#50000
0%
b1 '
b10 7
0<
1E
#55000
1%
1<
b10 R
#60000
0%
b10 '
b11 7
0<
0E
1D
#65000
1%
1<
b11 R
#70000
0%
b11 '
b100 7
0<
1E
#75000
1%
1<
b100 R
#80000
0%
b100 '
b101 7
0<
0E
0D
1C
#85000
1%
1<
b101 R
#90000
0%
b101 '
b110 7
0<
1E
#95000
1%
1<
b110 R
#100000
0%
b110 '
b111 7
0<
0E
1D
#105000
1%
1<
b111 R
#110000
0%
b111 '
b1000 7
0<
1E
#115000
1%
1<
b1000 R
#120000
0%
b1000 '
b1001 7
0<
0E
0D
0C
1B
#125000
1%
1<
b1001 R
#130000
0%
b1001 '
b1010 7
0<
1E
#135000
1%
1<
b1010 R
#140000
0%
b1010 '
b1011 7
0<
0E
1D
#145000
1%
1<
b1011 R
#150000
0%
b1011 '
b1100 7
0<
1E
#155000
1%
1<
b1100 R
#160000
0%
b1100 '
b1101 7
0<
0E
0D
1C
#165000
1%
1<
b1101 R
#170000
0%
b1101 '
b1110 7
0<
1E
#175000
1%
1<
b1110 R
#180000
0%
b1110 '
b1111 7
0<
0E
1D
#185000
1%
1<
b1111 R
#190000
0%
b1111 '
b10000 7
0<
1E
#195000
1%
1<
b10000 R
#200000
0%
b10000 '
b10001 7
0<
0E
0D
0C
0B
1A
#205000
1%
1<
b10001 R
#210000
0%
b10001 '
b10010 7
0<
1E
#215000
1%
1<
b10010 R
#220000
0%
b10010 '
b10011 7
0<
0E
1D
#225000
1%
1<
b10011 R
#230000
0%
b10011 '
b10100 7
0<
1E
#235000
1%
1<
b10100 R
#240000
0%
b10100 '
b10101 7
0<
0E
0D
1C
#245000
1%
1<
b10101 R
#250000
0%
b10101 '
b10110 7
0<
1E
#255000
1%
1<
b10110 R
#260000
0%
b10110 '
b10111 7
0<
0E
1D
#265000
1%
1<
b10111 R
#270000
0%
b10111 '
b11000 7
0<
1E
#275000
1%
1<
b11000 R
#280000
0%
b11000 '
b11001 7
0<
0E
0D
0C
1B
#285000
1%
1<
b11001 R
#290000
0%
b11001 '
b11010 7
0<
1E
#295000
1%
1<
b11010 R
#300000
0%
b11010 '
b11011 7
0<
0E
1D
#305000
1%
1<
b11011 R
#310000
0%
b11011 '
b11100 7
0<
1E
#315000
1%
1<
b11100 R
#320000
0%
b11100 '
b11101 7
0<
0E
0D
1C
#325000
1%
1<
b11101 R
#330000
0%
b11101 '
b11110 7
0<
1E
#335000
1%
1<
b11110 R
#340000
0%
b11110 '
b11111 7
0<
0E
1D
#345000
1%
1<
b11111 R
#350000
0%
b11111 '
b100000 7
0<
1E
#355000
1%
1<
b100000 R
#360000
0%
b100000 '
b100001 7
0<
0E
0D
0C
0B
0A
1@
#365000
1%
1<
b100001 R
#370000
0%
b100001 '
b100010 7
0<
1E
#375000
1%
1<
b100010 R
#380000
0%
b100010 '
b100011 7
0<
0E
1D
#385000
1%
1<
b100011 R
#390000
0%
b100011 '
b100100 7
0<
1E
#395000
1%
1<
b100100 R
b1 S
b0 T
b1110 Q
#400000
0%
bx '
b100101 7
b1 6
bz '
0<
zE
zD
zC
zB
zA
z@
z?
z>
#405000
1%
1<
b1 T
b1111 Q
#410000
0%
0<
#415000
1%
1<
b10 T
b10000 Q
#420000
0%
0<
#425000
1%
1<
b11 T
b10100 Q
#430000
0%
0<
#435000
1%
1<
b100 T
b10101 Q
#440000
0%
0<
#445000
1%
1<
b101 T
b10110 Q
#450000
0%
0<
#455000
1%
1<
b110 T
b11010 Q
#460000
0%
0<
#465000
1%
1<
b111 T
b11011 Q
#470000
0%
0<
#475000
1%
1<
b1000 T
b11100 Q
#480000
0%
0<
#485000
1%
1<
b1001 T
b0 T
b10 S
#490000
0%
0<
#495000
1%
1<
1K
b1110 J
b1 T
12
01
10
1/
1.
0-
0,
0+
0*
#500000
0%
0<
#505000
1%
b1 :
1<
b1111 J
b10 T
11
#510000
0%
0<
#515000
1%
b1111 4
b10 :
1<
b10000 J
b11 T
01
00
0/
0.
1-
#520000
0%
0<
#525000
1%
b10000 4
b11 :
1<
b10100 J
b100 T
1/
#530000
0%
0<
#535000
1%
b10100 4
b100 :
1<
b10101 J
b101 T
11
#540000
0%
0<
#545000
1%
b10101 4
b101 :
1<
b10110 J
b110 T
01
10
#550000
0%
0<
#555000
1%
b10110 4
b110 :
1<
b11010 J
b111 T
0/
1.
#560000
0%
0<
#565000
1%
b11010 4
b111 :
1<
b11011 J
b1000 T
11
#570000
0%
0<
#575000
1%
b11011 4
b1000 :
1<
b11100 J
b11 S
01
00
1/
#580000
0%
0<
#585000
1%
b11100 4
b1001 :
1<
0K
0L
02
03
#590000
0%
b10 (
1)
0<
0H
1G
0F
1I
#595000
1%
b1111 4
1<
b10 M
1L
b0 S
13
#600000
0%
0)
b10 6
bz (
0<
0I
zH
zG
zF
#605000
1%
1<
b11 N
b1111 P
b0 T
b1 S
b1111 Q
#610000
0%
0<
#615000
1%
1<
b1 T
b10000 Q
#620000
0%
0<
#625000
1%
1<
b10 T
b10001 Q
#630000
0%
0<
#635000
1%
1<
b11 T
b10101 Q
#640000
0%
0<
#645000
1%
1<
b100 T
b10110 Q
#650000
0%
0<
#655000
1%
1<
b101 T
b10111 Q
#660000
0%
0<
#665000
1%
1<
b110 T
b11011 Q
#670000
0%
0<
#675000
1%
1<
b111 T
b11100 Q
#680000
0%
0<
#685000
1%
1<
b1000 T
b11101 Q
#690000
0%
0<
#695000
1%
1<
b1001 T
b0 T
b10 S
#700000
0%
0<
#705000
1%
1<
1K
b1111 J
b1 T
12
11
10
0-
#710000
0%
0<
#715000
1%
b1010 :
1<
b10000 J
b10 T
01
00
0/
0.
1-
#720000
0%
0<
#725000
1%
b10000 4
b1011 :
1<
b10001 J
b11 T
11
#730000
0%
0<
#735000
1%
b10001 4
b1100 :
1<
b10101 J
b100 T
1/
#740000
0%
0<
#745000
1%
b10101 4
b1101 :
1<
b10110 J
b101 T
01
10
#750000
0%
0<
#755000
1%
b10110 4
b1110 :
1<
b10111 J
b110 T
11
#760000
0%
0<
#765000
1%
b10111 4
b1111 :
1<
b11011 J
b111 T
0/
1.
#770000
0%
0<
#775000
1%
b11011 4
b10000 :
1<
b11100 J
b1000 T
01
00
1/
#780000
0%
0<
#785000
1%
b11100 4
b10001 :
1<
b11101 J
b11 S
11
#790000
0%
0<
#795000
1%
b11101 4
b10010 :
1<
0K
0L
02
03
#800000
0%
b101 (
1)
0<
1H
0G
1F
1I
#805000
1%
b10101 4
1<
b101 M
1L
b0 S
13
#810000
0%
0)
b11 6
bz (
0<
0I
zH
zG
zF
#815000
1%
1<
b11 O
b10101 P
b0 T
b1 S
b10101 Q
#820000
0%
0<
#825000
1%
1<
b1 T
b10110 Q
#830000
0%
0<
#835000
1%
1<
b10 T
b10111 Q
#840000
0%
0<
#845000
1%
1<
b11 T
b11011 Q
#850000
0%
0<
#855000
1%
1<
b100 T
b11100 Q
#860000
0%
0<
#865000
1%
1<
b101 T
b11101 Q
#870000
0%
0<
#875000
1%
1<
b110 T
b100001 Q
#880000
0%
0<
#885000
1%
1<
b111 T
b100010 Q
#890000
0%
0<
#895000
1%
1<
b1000 T
b100011 Q
#900000
0%
0<
#905000
1%
1<
b1001 T
b0 T
b10 S
#910000
0%
0<
#915000
1%
1<
1K
b10101 J
b1 T
12
0.
#920000
0%
0<
#925000
1%
b10011 :
1<
b10110 J
b10 T
01
10
#930000
0%
0<
#935000
1%
b10110 4
b10100 :
1<
b10111 J
b11 T
11
#940000
0%
0<
#945000
1%
b10111 4
b10101 :
1<
b11011 J
b100 T
0/
1.
#950000
0%
0<
#955000
1%
b11011 4
b10110 :
1<
b11100 J
b101 T
01
00
1/
#960000
0%
0<
#965000
1%
b11100 4
b10111 :
1<
b11101 J
b110 T
11
#970000
0%
0<
#975000
1%
b11101 4
b11000 :
1<
b100001 J
b111 T
0/
0.
0-
1,
#980000
0%
0<
#985000
1%
b100001 4
b11001 :
1<
b100010 J
b1000 T
01
10
#990000
0%
0<
#995000
1%
b100010 4
b11010 :
1<
b100011 J
b11 S
11
#1000000
0%
0<
#1005000
1%
b100011 4
b11011 :
1<
0K
0L
02
03
#1010000
0%
b11 (
1)
0<
1H
1G
0F
1I
#1015000
1%
b10100 4
1<
b11 M
1L
b0 S
13
#1020000
0%
0)
b100 6
bz (
0<
0I
zH
zG
zF
#1025000
1%
1<
b10 N
b10100 P
b0 T
b1 S
b10100 Q
#1030000
0%
0<
#1035000
1%
1<
b1 T
b10101 Q
#1040000
0%
0<
#1045000
1%
1<
b10 T
b10110 Q
#1050000
0%
0<
#1055000
1%
1<
b11 T
b11010 Q
#1060000
0%
0<
#1065000
1%
1<
b100 T
b11011 Q
#1070000
0%
0<
#1075000
1%
1<
b101 T
b11100 Q
#1080000
0%
0<
#1085000
1%
1<
b110 T
b100000 Q
#1090000
0%
0<
#1095000
1%
1<
b111 T
b100001 Q
#1100000
0%
0<
#1105000
1%
1<
b1000 T
b100010 Q
#1110000
0%
0<
#1115000
1%
1<
b1001 T
b0 T
b10 S
#1120000
0%
0<
#1125000
1%
1<
1K
b10100 J
b1 T
12
01
00
1/
1-
0,
#1130000
0%
0<
#1135000
1%
b11100 :
1<
b10101 J
b10 T
11
#1140000
0%
0<
#1145000
1%
b10101 4
b11101 :
1<
b10110 J
b11 T
01
10
#1150000
0%
0<
#1155000
1%
b10110 4
b11110 :
1<
b11010 J
b100 T
0/
1.
#1160000
0%
0<
#1165000
1%
b11010 4
b11111 :
1<
b11011 J
b101 T
11
#1170000
0%
0<
#1175000
1%
b11011 4
b100000 :
1<
b11100 J
b110 T
01
00
1/
#1180000
0%
0<
#1185000
1%
b11100 4
b100001 :
1<
b100000 J
b111 T
0/
0.
0-
1,
#1190000
0%
0<
#1195000
1%
b100000 4
b100010 :
1<
b100001 J
b1000 T
11
#1200000
0%
0<
#1205000
1%
b100001 4
b100011 :
1<
b100010 J
b11 S
01
10
#1210000
0%
0<
#1215000
1%
b100010 4
b100100 :
1<
0K
0L
02
03
#1220000
0%
b100 (
1)
0<
0H
0G
1F
1I
#1225000
1%
b1110 4
1<
b100 M
1L
b0 S
13
#1230000
0%
0)
b101 6
bz (
0<
0I
zH
zG
zF
#1235000
1%
1<
b10 O
b1110 P
b0 T
b1 S
b1110 Q
#1240000
0%
0<
#1245000
1%
1<
b1 T
b1111 Q
#1250000
0%
0<
#1255000
1%
1<
b10 T
b10000 Q
#1260000
0%
0<
#1265000
1%
1<
b11 T
b10100 Q
#1270000
0%
0<
#1275000
1%
1<
b100 T
b10101 Q
#1280000
0%
0<
#1285000
1%
1<
b101 T
b10110 Q
#1290000
0%
0<
#1295000
1%
1<
b110 T
b11010 Q
#1300000
0%
0<
#1305000
1%
1<
b111 T
b11011 Q
#1310000
0%
0<
#1315000
1%
1<
b1000 T
b11100 Q
#1320000
0%
0<
#1325000
1%
1<
b1001 T
b0 T
b10 S
#1330000
0%
0<
#1335000
1%
1<
1K
b1110 J
b1 T
12
1/
1.
0,
#1340000
0%
0<
#1345000
1%
b100101 :
1<
b1111 J
b10 T
11
#1350000
0%
0<
#1355000
1%
b1111 4
b100110 :
1<
b10000 J
b11 T
01
00
0/
0.
1-
#1360000
0%
0<
#1365000
1%
b10000 4
b100111 :
1<
b10100 J
b100 T
1/
#1370000
0%
0<
#1375000
1%
b10100 4
b101000 :
1<
b10101 J
b101 T
11
#1380000
0%
0<
#1385000
1%
b10101 4
b101001 :
1<
b10110 J
b110 T
01
10
#1390000
0%
0<
#1395000
1%
b10110 4
b101010 :
1<
b11010 J
b111 T
0/
1.
#1400000
0%
0<
#1405000
1%
b11010 4
b101011 :
1<
b11011 J
b1000 T
11
#1410000
0%
0<
#1415000
1%
b11011 4
b101100 :
1<
b11100 J
b11 S
01
00
1/
#1420000
0%
0<
#1425000
1%
b11100 4
b101101 :
1<
0K
0L
02
03
#1430000
0%
b0 (
1)
0<
0H
0G
0F
1I
#1435000
1%
b1110 4
1<
b0 M
1L
b0 T
b0 S
13
#1440000
0%
0)
b110 6
bz (
0<
0I
zH
zG
zF
#1445000
1%
1<
1K
b1110 J
b1 T
12
10
0-
#1450000
0%
0<
#1455000
1%
b101110 :
1<
b1111 J
b10 T
11
#1460000
0%
0<
#1465000
1%
b1111 4
b101111 :
1<
b10000 J
b11 T
01
00
0/
0.
1-
#1470000
0%
0<
#1475000
1%
b10000 4
b110000 :
1<
b10100 J
b100 T
1/
#1480000
0%
0<
#1485000
1%
b10100 4
b110001 :
1<
b10101 J
b101 T
11
#1490000
0%
0<
#1495000
1%
b10101 4
b110010 :
1<
b10110 J
b110 T
01
10
#1500000
0%
0<
#1505000
1%
b10110 4
b110011 :
1<
b11010 J
b111 T
0/
1.
#1510000
0%
0<
#1515000
1%
b11010 4
b110100 :
1<
b11011 J
b1000 T
11
#1520000
0%
0<
#1525000
1%
b11011 4
b110101 :
1<
b11100 J
b1 S
01
00
1/
#1530000
0%
0<
#1535000
1%
b11100 4
b110110 :
1<
0K
0L
02
03
#1540000
0%
b1 (
1)
b0 7
0<
1H
0G
0F
1I
#1545000
1%
b1110 4
1<
b1 M
1L
b0 R
b0 S
13
#1550000
0%
b0 '
bz (
0)
b1 7
0<
0E
0D
0C
0B
0A
0@
0?
0>
zH
zG
zF
0I
#1555000
1%
1<
b1 R
#1560000
0%
b1 '
b10 7
0<
1E
#1565000
1%
1<
b10 R
#1570000
0%
b10 '
b11 7
0<
0E
1D
#1575000
1%
1<
b11 R
#1580000
0%
b11 '
b100 7
0<
1E
#1585000
1%
1<
b100 R
#1590000
0%
b100 '
b101 7
0<
0E
0D
1C
#1595000
1%
1<
b101 R
#1600000
0%
b101 '
b110 7
0<
1E
#1605000
1%
1<
b110 R
#1610000
0%
b110 '
b111 7
0<
0E
1D
#1615000
1%
1<
b111 R
#1620000
0%
b111 '
b1000 7
0<
1E
#1625000
1%
1<
b1000 R
#1630000
0%
b1000 '
b1001 7
0<
0E
0D
0C
1B
#1635000
1%
1<
b1001 R
#1640000
0%
b1001 '
b1010 7
0<
1E
#1645000
1%
1<
b1010 R
#1650000
0%
b1010 '
b1011 7
0<
0E
1D
#1655000
1%
1<
b1011 R
#1660000
0%
b1011 '
b1100 7
0<
1E
#1665000
1%
1<
b1100 R
#1670000
0%
b1100 '
b1101 7
0<
0E
0D
1C
#1675000
1%
1<
b1101 R
#1680000
0%
b1101 '
b1110 7
0<
1E
#1685000
1%
1<
b1110 R
#1690000
0%
b1110 '
b1111 7
0<
0E
1D
#1695000
1%
1<
b1111 R
#1700000
0%
b1111 '
b10000 7
0<
1E
#1705000
1%
1<
b10000 R
#1710000
0%
b10000 '
b10001 7
0<
0E
0D
0C
0B
1A
#1715000
1%
1<
b10001 R
#1720000
0%
b10001 '
b10010 7
0<
1E
#1725000
1%
1<
b10010 R
#1730000
0%
b10010 '
b10011 7
0<
0E
1D
#1735000
1%
1<
b10011 R
#1740000
0%
b10011 '
b10100 7
0<
1E
#1745000
1%
1<
b10100 R
#1750000
0%
b10100 '
b10101 7
0<
0E
0D
1C
#1755000
1%
1<
b10101 R
#1760000
0%
b10101 '
b10110 7
0<
1E
#1765000
1%
1<
b10110 R
#1770000
0%
b10110 '
b10111 7
0<
0E
1D
#1775000
1%
1<
b10111 R
#1780000
0%
b10111 '
b11000 7
0<
1E
#1785000
1%
1<
b11000 R
#1790000
0%
b11000 '
b11001 7
0<
0E
0D
0C
1B
#1795000
1%
1<
b11001 R
#1800000
0%
b11001 '
b11010 7
0<
1E
#1805000
1%
1<
b11010 R
#1810000
0%
b11010 '
b11011 7
0<
0E
1D
#1815000
1%
1<
b11011 R
#1820000
0%
b11011 '
b11100 7
0<
1E
#1825000
1%
1<
b11100 R
#1830000
0%
b11100 '
b11101 7
0<
0E
0D
1C
#1835000
1%
1<
b11101 R
#1840000
0%
b11101 '
b11110 7
0<
1E
#1845000
1%
1<
b11110 R
#1850000
0%
b11110 '
b11111 7
0<
0E
1D
#1855000
1%
1<
b11111 R
#1860000
0%
b11111 '
b100000 7
0<
1E
#1865000
1%
1<
b100000 R
#1870000
0%
b100000 '
b100001 7
0<
0E
0D
0C
0B
0A
1@
#1875000
1%
1<
b100001 R
#1880000
0%
b100001 '
b100010 7
0<
1E
#1885000
1%
1<
b100010 R
#1890000
0%
b100010 '
b100011 7
0<
0E
1D
#1895000
1%
1<
b100011 R
#1900000
0%
b100011 '
b100100 7
0<
1E
#1905000
1%
1<
b100100 R
b1 S
b0 T
b1110 Q
#1910000
0%
bx '
b100101 7
b111 6
bz '
0<
zE
zD
zC
zB
zA
z@
z?
z>
#1915000
1%
1<
b1 T
b1111 Q
#1920000
0%
0<
#1925000
1%
1<
b10 T
b10000 Q
#1930000
0%
0<
#1935000
1%
1<
b11 T
b10100 Q
#1940000
0%
0<
#1945000
1%
1<
b100 T
b10101 Q
#1950000
0%
0<
#1955000
1%
1<
b101 T
b10110 Q
#1960000
0%
0<
#1965000
1%
1<
b110 T
b11010 Q
#1970000
0%
0<
#1975000
1%
1<
b111 T
b11011 Q
#1980000
0%
0<
#1985000
1%
1<
b1000 T
b11100 Q
#1990000
0%
0<
#1995000
1%
1<
b1001 T
b0 T
b10 S
#2000000
0%
0<
#2005000
1%
1<
1K
b1110 J
b1 T
12
10
0-
#2010000
0%
0<
#2015000
1%
b110111 :
1<
b1111 J
b10 T
11
#2020000
0%
0<
#2025000
1%
b1111 4
b111000 :
1<
b10000 J
b11 T
01
00
0/
0.
1-
#2030000
0%
0<
#2035000
1%
b10000 4
b111001 :
1<
b10100 J
b100 T
1/
#2040000
0%
0<
#2045000
1%
b10100 4
b111010 :
1<
b10101 J
b101 T
11
#2050000
0%
0<
#2055000
1%
b10101 4
b111011 :
1<
b10110 J
b110 T
01
10
#2060000
0%
0<
#2065000
1%
b10110 4
b111100 :
1<
b11010 J
b111 T
0/
1.
#2070000
0%
0<
#2075000
1%
b11010 4
b111101 :
1<
b11011 J
b1000 T
11
#2080000
0%
0<
#2085000
1%
b11011 4
b111110 :
1<
b11100 J
b11 S
01
00
1/
#2090000
0%
0<
#2095000
1%
b11100 4
b111111 :
1<
0K
0L
02
03
#2100000
0%
b11 (
1)
0<
1H
1G
0F
1I
#2105000
1%
b1101 4
1<
b11 M
1L
b0 S
13
#2110000
0%
0)
b1000 6
bz (
0<
0I
zH
zG
zF
#2115000
1%
1<
b1 N
b1101 P
b0 T
b1 S
b1101 Q
#2120000
0%
0<
#2125000
1%
1<
b1 T
b1110 Q
#2130000
0%
0<
#2135000
1%
1<
b10 T
b1111 Q
#2140000
0%
0<
#2145000
1%
1<
b11 T
b10011 Q
#2150000
0%
0<
#2155000
1%
1<
b100 T
b10100 Q
#2160000
0%
0<
#2165000
1%
1<
b101 T
b10101 Q
#2170000
0%
0<
#2175000
1%
1<
b110 T
b11001 Q
#2180000
0%
0<
#2185000
1%
1<
b111 T
b11010 Q
#2190000
0%
0<
#2195000
1%
1<
b1000 T
b11011 Q
#2200000
0%
0<
#2205000
1%
1<
b1001 T
b0 T
b10 S
#2210000
0%
0<
#2215000
1%
1<
1K
b1101 J
b1 T
12
11
0-
#2220000
0%
0<
#2225000
1%
b1000000 :
1<
b1110 J
b10 T
01
10
#2230000
0%
0<
#2235000
1%
b1110 4
b1000001 :
1<
b1111 J
b11 T
11
#2240000
0%
0<
#2245000
1%
b1111 4
b1000010 :
1<
b10011 J
b100 T
0/
0.
1-
#2250000
0%
0<
#2255000
1%
b10011 4
b1000011 :
1<
b10100 J
b101 T
01
00
1/
#2260000
0%
0<
#2265000
1%
b10100 4
b1000100 :
1<
b10101 J
b110 T
11
#2270000
0%
0<
#2275000
1%
b10101 4
b1000101 :
1<
b11001 J
b111 T
0/
1.
#2280000
0%
0<
#2285000
1%
b11001 4
b1000110 :
1<
b11010 J
b1000 T
01
10
#2290000
0%
0<
#2295000
1%
b11010 4
b1000111 :
1<
b11011 J
b11 S
11
#2300000
0%
0<
#2305000
1%
b11011 4
b1001000 :
1<
0K
0L
02
03
#2310000
0%
b101 (
1)
0<
1H
0G
1F
1I
#2315000
1%
b10011 4
1<
b101 M
1L
b0 S
13
#2320000
0%
0)
b1001 6
bz (
0<
0I
zH
zG
zF
#2325000
1%
1<
b11 O
b10011 P
b0 T
b1 S
b10011 Q
#2330000
0%
0<
#2335000
1%
1<
b1 T
b10100 Q
#2340000
0%
0<
#2345000
1%
1<
b10 T
b10101 Q
#2350000
0%
0<
#2355000
1%
1<
b11 T
b11001 Q
#2360000
0%
0<
#2365000
1%
1<
b100 T
b11010 Q
#2370000
0%
0<
#2375000
1%
1<
b101 T
b11011 Q
#2380000
0%
0<
#2385000
1%
1<
b110 T
b11111 Q
#2390000
0%
0<
#2395000
1%
1<
b111 T
b100000 Q
#2400000
0%
0<
#2405000
1%
1<
b1000 T
b100001 Q
#2410000
0%
0<
#2415000
1%
1<
b1001 T
b0 T
b10 S
#2420000
0%
0<
#2425000
1%
1<
1K
b10011 J
b1 T
12
0.
#2430000
0%
0<
#2435000
1%
b1001001 :
1<
b10100 J
b10 T
01
00
1/
#2440000
0%
0<
#2445000
1%
b10100 4
b1001010 :
1<
b10101 J
b11 T
11
#2450000
0%
0<
#2455000
1%
b10101 4
b1001011 :
1<
b11001 J
b100 T
0/
1.
#2460000
0%
0<
#2465000
1%
b11001 4
b1001100 :
1<
b11010 J
b101 T
01
10
#2470000
0%
0<
#2475000
1%
b11010 4
b1001101 :
1<
b11011 J
b110 T
11
#2480000
0%
0<
#2485000
1%
b11011 4
b1001110 :
1<
b11111 J
b111 T
1/
#2490000
0%
0<
#2495000
1%
b11111 4
b1001111 :
1<
b100000 J
b1000 T
01
00
0/
0.
0-
1,
#2500000
0%
0<
#2505000
1%
b100000 4
b1010000 :
1<
b100001 J
b11 S
11
#2510000
0%
0<
#2515000
1%
b100001 4
b1010001 :
1<
0K
0L
02
03
#2520000
0%
b101 (
1)
0<
1H
0G
1F
1I
#2525000
1%
b10011 4
1<
1L
b0 S
13
#2530000
0%
0)
b1010 6
bz (
0<
0I
zH
zG
zF
#2535000
1%
1<
b1 S
b0 T
b10011 Q
#2540000
0%
0<
#2545000
1%
1<
b1 T
b10100 Q
#2550000
0%
0<
#2555000
1%
1<
b10 T
b10101 Q
#2560000
0%
0<
#2565000
1%
1<
b11 T
b11001 Q
#2570000
0%
0<
#2575000
1%
1<
b100 T
b11010 Q
#2580000
0%
0<
#2585000
1%
1<
b101 T
b11011 Q
#2590000
0%
0<
#2595000
1%
1<
b110 T
b11111 Q
#2600000
0%
0<
#2605000
1%
1<
b111 T
b100000 Q
#2610000
0%
0<
#2615000
1%
1<
b1000 T
b100001 Q
#2620000
0%
0<
#2625000
1%
1<
b1001 T
b0 T
b10 S
#2630000
0%
0<
#2635000
1%
1<
1K
b10011 J
b1 T
12
10
1-
0,
#2640000
0%
0<
#2645000
1%
b1010010 :
1<
b10100 J
b10 T
01
00
1/
#2650000
0%
0<
#2655000
1%
b10100 4
b1010011 :
1<
b10101 J
b11 T
11
#2660000
0%
0<
#2665000
1%
b10101 4
b1010100 :
1<
b11001 J
b100 T
0/
1.
#2670000
0%
0<
#2675000
1%
b11001 4
b1010101 :
1<
b11010 J
b101 T
01
10
#2680000
0%
0<
#2685000
1%
b11010 4
b1010110 :
1<
b11011 J
b110 T
11
#2690000
0%
0<
#2695000
1%
b11011 4
b1010111 :
1<
b11111 J
b111 T
1/
#2700000
0%
0<
#2705000
1%
b11111 4
b1011000 :
1<
b100000 J
b1000 T
01
00
0/
0.
0-
1,
#2710000
0%
0<
#2715000
1%
b100000 4
b1011001 :
1<
b100001 J
b11 S
11
#2720000
0%
0<
#2725000
1%
b100001 4
b1011010 :
1<
0K
0L
02
03
#2730000
0%
b11 (
1)
0<
1H
1G
0F
1I
#2735000
1%
b10010 4
1<
b11 M
1L
b0 S
13
#2740000
0%
0)
b1011 6
bz (
0<
0I
zH
zG
zF
#2745000
1%
1<
b0 N
b10010 P
b0 T
b1 S
b10010 Q
#2750000
0%
0<
#2755000
1%
1<
b1 T
b10011 Q
#2760000
0%
0<
#2765000
1%
1<
b10 T
b10100 Q
#2770000
0%
0<
#2775000
1%
1<
b11 T
b11000 Q
#2780000
0%
0<
#2785000
1%
1<
b100 T
b11001 Q
#2790000
0%
0<
#2795000
1%
1<
b101 T
b11010 Q
#2800000
0%
0<
#2805000
1%
1<
b110 T
b11110 Q
#2810000
0%
0<
#2815000
1%
1<
b111 T
b11111 Q
#2820000
0%
0<
#2825000
1%
1<
b1000 T
b100000 Q
#2830000
0%
0<
#2835000
1%
1<
b1001 T
b0 T
b10 S
#2840000
0%
0<
#2845000
1%
1<
1K
b10010 J
b1 T
12
01
10
1-
0,
#2850000
0%
0<
#2855000
1%
b1011011 :
1<
b10011 J
b10 T
11
#2860000
0%
0<
#2865000
1%
b10011 4
b1011100 :
1<
b10100 J
b11 T
01
00
1/
#2870000
0%
0<
#2875000
1%
b10100 4
b1011101 :
1<
b11000 J
b100 T
0/
1.
#2880000
0%
0<
#2885000
1%
b11000 4
b1011110 :
1<
b11001 J
b101 T
11
#2890000
0%
0<
#2895000
1%
b11001 4
b1011111 :
1<
b11010 J
b110 T
01
10
#2900000
0%
0<
#2905000
1%
b11010 4
b1100000 :
1<
b11110 J
b111 T
1/
#2910000
0%
0<
#2915000
1%
b11110 4
b1100001 :
1<
b11111 J
b1000 T
11
#2920000
0%
0<
#2925000
1%
b11111 4
b1100010 :
1<
b100000 J
b11 S
01
00
0/
0.
0-
1,
#2930000
0%
0<
#2935000
1%
b100000 4
b1100011 :
1<
0K
0L
02
03
#2940000
0%
b11 (
1)
0<
1H
1G
0F
1I
#2945000
1%
b10010 4
1<
1L
b0 S
13
#2950000
0%
0)
b1100 6
bz (
0<
0I
zH
zG
zF
#2955000
1%
1<
b1 S
b0 T
b10010 Q
#2960000
0%
0<
#2965000
1%
1<
b1 T
b10011 Q
#2970000
0%
0<
#2975000
1%
1<
b10 T
b10100 Q
#2980000
0%
0<
#2985000
1%
1<
b11 T
b11000 Q
#2990000
0%
0<
#2995000
1%
1<
b100 T
b11001 Q
#3000000
0%
0<
#3005000
1%
1<
b101 T
b11010 Q
#3010000
0%
0<
#3015000
1%
1<
b110 T
b11110 Q
#3020000
0%
0<
#3025000
1%
1<
b111 T
b11111 Q
#3030000
0%
0<
#3035000
1%
1<
b1000 T
b100000 Q
#3040000
0%
0<
#3045000
1%
1<
b1001 T
b0 T
b10 S
#3050000
0%
0<
#3055000
1%
1<
1K
b10010 J
b1 T
12
10
1-
0,
#3060000
0%
0<
#3065000
1%
b1100100 :
1<
b10011 J
b10 T
11
#3070000
0%
0<
#3075000
1%
b10011 4
b1100101 :
1<
b10100 J
b11 T
01
00
1/
#3080000
0%
0<
#3085000
1%
b10100 4
b1100110 :
1<
b11000 J
b100 T
0/
1.
#3090000
0%
0<
#3095000
1%
b11000 4
b1100111 :
1<
b11001 J
b101 T
11
#3100000
0%
0<
